…
- `e`: residuals.

- `w_*`: columns of the covariate adjustment model matrix `W`.

## See also

Other simulations:
[`pmrm_simulate_slowing()`](https://wlandau.github.io/pmrm/reference/pmrm_simulate_slowing.md)

## Examples

``` r
  pmrm_simulate_decline()
#> # A tibble: 1,500 × 11
#>    patient   visit   arm       i     j     k      y     t  beta    mu       e
#>    <chr>     <ord>   <ord> <int> <int> <int>  <dbl> <dbl> <dbl> <dbl>   <dbl>
#>  1 patient_1 visit_1 arm_1     1     1     1  2.72      0   0   0      2.72  
#>  2 patient_1 visit_2 arm_1     1     2     1 -0.379     1   0   0.693 -1.07  
#>  3 patient_1 visit_3 arm_1     1     3     1  1.72      2   0   1.10   0.621 
#>  4 patient_1 visit_4 arm_1     1     4     1  1.97      3   0   1.39   0.581 
#>  5 patient_1 visit_5 arm_1     1     5     1  0.668     4   0   1.61  -0.942 
#>  6 patient_2 visit_1 arm_2     2     1     2  0.644     0   0.1 0      0.644 
#>  7 patient_2 visit_2 arm_2     2     2     2  1.21      1   0.1 0.624  0.589 
#>  8 patient_2 visit_3 arm_2     2     3     2  0.438     2   0.1 0.989 -0.550 
#>  9 patient_2 visit_4 arm_2     2     4     2  1.22      3   0.1 1.25  -0.0277
#> 10 patient_2 visit_5 arm_2     2     5     2  0.366     4   0.1 1.45  -1.08  
#> # ℹ 1,490 more rows
```
