…
The outcome column can have missing values, but no other column must
have missing values.[¹](#fn1)

``` r
simulation$y[c(2L, 3L, 12L, 13L, 14L, 15L)] <- NA_real_
```

The output datasets includes important information that you would supply
to a modeling function.

``` r
simulation[, c("y", "t", "patient", "visit", "arm")]
#> # A tibble: 2,500 × 5
#>         y     t patient   visit   arm  
#>     <dbl> <dbl> <chr>     <ord>   <ord>
#>  1  2.20   0    patient_1 visit_1 arm_1
#>  2 NA      1.47 patient_1 visit_2 arm_1
#>  3 NA      1.90 patient_1 visit_3 arm_1
#>  4  1.93   2.73 patient_1 visit_4 arm_1
#>  5  3.33   4.04 patient_1 visit_5 arm_1
#>  6 -4.75   0    patient_2 visit_1 arm_2
#>  7  0.271  1.16 patient_2 visit_2 arm_2
#>  8  1.95   1.97 patient_2 visit_3 arm_2
#>  9  1.99   3.09 patient_2 visit_4 arm_2
#> 10  3.60   4.45 patient_2 visit_5 arm_2
#> # ℹ 2,490 more rows
```
…
